MSK useR group
…
**.lightgreen[2.]** Diagram layout and aesthetic design

???

Once the counting and annotation object is established, we can begin work on the second phase, diagram layout. We do this by creating a new data object that is ready to pass to CONSORT geoms in ggplot, which specifies layout and general aesthetics of the diagram.

---
## Counting and annotation 

```r
trial_data
```

```
## # A tibble: 1,200 × 5
##       id declined prior_chemo bone_mets treatment
##    <int>    <int>       <int>     <int> <chr>    
##  1 65464        0           0         0 Drug A   
##  2 48228        0           0         0 Drug B   
##  3 92586        0           0         0 Drug A   
##  4 70176        0           0         0 Drug B   
##  5 89052        0           0         0 Drug A   
##  6 97333        0           0         0 Drug B   
##  7 80724        0           0         0 Drug A   
##  8 65186        0           0         0 Drug B   
##  9 48837        0           0         0 Drug A   
## 10 99005        0           0         0 Drug B   
## # … with 1,190 more rows
```
…
<img src="index_files/figure-html/consort-3-1.png" width="504" style="display: block; margin: auto;" />

???

Like this.

---
## Proceed to analysis

```r
study_cohorts %>% cohort_pull(randomized)
```

```
## # A tibble: 938 × 5
##       id declined prior_chemo bone_mets treatment
##    <int>    <int>       <int>     <int> <chr>    
##  1 65464        0           0         0 Drug A   
##  2 48228        0           0         0 Drug B   
##  3 92586        0           0         0 Drug A   
##  4 70176        0           0         0 Drug B   
##  5 89052        0           0         0 Drug A   
##  6 97333        0           0         0 Drug B   
##  7 80724        0           0         0 Drug A   
##  8 65186        0           0         0 Drug B   
##  9 48837        0           0         0 Drug A   
## 10 99005        0           0         0 Drug B   
## # … with 928 more rows
```
…
